[
    {
        "id": "d77e47f028281f41",
        "type": "tab",
        "label": "Demo DAC LED",
        "disabled": false,
        "info": ""
    },
    {
        "id": "1050785f79df6e8a",
        "type": "inject",
        "z": "d77e47f028281f41",
        "name": "",
        "props": [
            {
                "p": "payload"
            },
            {
                "p": "topic",
                "vt": "str"
            }
        ],
        "repeat": "",
        "crontab": "",
        "once": false,
        "onceDelay": 0.1,
        "topic": "",
        "payload": "3.3",
        "payloadType": "num",
        "x": 130,
        "y": 80,
        "wires": [
            [
                "7cacee066a31cfc3"
            ]
        ]
    },
    {
        "id": "32db88e39179c197",
        "type": "inject",
        "z": "d77e47f028281f41",
        "name": "",
        "props": [
            {
                "p": "payload"
            },
            {
                "p": "topic",
                "vt": "str"
            }
        ],
        "repeat": "",
        "crontab": "",
        "once": false,
        "onceDelay": 0.1,
        "topic": "",
        "payload": "0",
        "payloadType": "num",
        "x": 130,
        "y": 120,
        "wires": [
            [
                "7cacee066a31cfc3"
            ]
        ]
    },
    {
        "id": "7c0a34c057b1c802",
        "type": "inject",
        "z": "d77e47f028281f41",
        "name": "",
        "props": [
            {
                "p": "payload"
            },
            {
                "p": "topic",
                "vt": "str"
            }
        ],
        "repeat": "",
        "crontab": "",
        "once": false,
        "onceDelay": 0.1,
        "topic": "",
        "payload": "3300",
        "payloadType": "num",
        "x": 130,
        "y": 200,
        "wires": [
            [
                "95a6fc057cf11891"
            ]
        ]
    },
    {
        "id": "2e1d22ae52532fd2",
        "type": "inject",
        "z": "d77e47f028281f41",
        "name": "",
        "props": [
            {
                "p": "payload"
            },
            {
                "p": "topic",
                "vt": "str"
            }
        ],
        "repeat": "",
        "crontab": "",
        "once": false,
        "onceDelay": 0.1,
        "topic": "",
        "payload": "0",
        "payloadType": "num",
        "x": 130,
        "y": 240,
        "wires": [
            [
                "95a6fc057cf11891"
            ]
        ]
    },
    {
        "id": "50e49c7492ede459",
        "type": "comment",
        "z": "d77e47f028281f41",
        "name": "Labeled as LEDB on board",
        "info": "",
        "x": 590,
        "y": 220,
        "wires": []
    },
    {
        "id": "97475a4bf2580b1b",
        "type": "comment",
        "z": "d77e47f028281f41",
        "name": "Labeled as LEDA on board",
        "info": "",
        "x": 590,
        "y": 100,
        "wires": []
    },
    {
        "id": "111e1a5d3c3fd774",
        "type": "comment",
        "z": "d77e47f028281f41",
        "name": "Connect jumpers on right side of board between LEDB to DAC1 and LEDA to DAC0",
        "info": "",
        "x": 350,
        "y": 40,
        "wires": []
    },
    {
        "id": "b0fc316505fb7933",
        "type": "inject",
        "z": "d77e47f028281f41",
        "name": "",
        "props": [
            {
                "p": "payload"
            },
            {
                "p": "topic",
                "vt": "str"
            }
        ],
        "repeat": "",
        "crontab": "",
        "once": false,
        "onceDelay": 0.1,
        "topic": "",
        "payload": "1",
        "payloadType": "num",
        "x": 130,
        "y": 300,
        "wires": [
            [
                "884f6d1eedb422b5"
            ]
        ]
    },
    {
        "id": "ee16983a543ea6b0",
        "type": "inject",
        "z": "d77e47f028281f41",
        "name": "",
        "props": [
            {
                "p": "payload"
            },
            {
                "p": "topic",
                "vt": "str"
            }
        ],
        "repeat": "",
        "crontab": "",
        "once": false,
        "onceDelay": 0.1,
        "topic": "",
        "payload": "0",
        "payloadType": "num",
        "x": 130,
        "y": 340,
        "wires": [
            [
                "884f6d1eedb422b5"
            ]
        ]
    },
    {
        "id": "3586e1e9ff37c9da",
        "type": "inject",
        "z": "d77e47f028281f41",
        "name": "",
        "props": [
            {
                "p": "payload"
            },
            {
                "p": "topic",
                "vt": "str"
            }
        ],
        "repeat": "",
        "crontab": "",
        "once": false,
        "onceDelay": 0.1,
        "topic": "",
        "payload": "100",
        "payloadType": "num",
        "x": 130,
        "y": 400,
        "wires": [
            [
                "c08e2a0ae57bc007"
            ]
        ]
    },
    {
        "id": "e2fdd3bdb7ac686b",
        "type": "inject",
        "z": "d77e47f028281f41",
        "name": "",
        "props": [
            {
                "p": "payload"
            },
            {
                "p": "topic",
                "vt": "str"
            }
        ],
        "repeat": "",
        "crontab": "",
        "once": false,
        "onceDelay": 0.1,
        "topic": "",
        "payload": "0",
        "payloadType": "num",
        "x": 130,
        "y": 440,
        "wires": [
            [
                "c08e2a0ae57bc007"
            ]
        ]
    },
    {
        "id": "d32ae2fbd372d451",
        "type": "inject",
        "z": "d77e47f028281f41",
        "name": "",
        "props": [
            {
                "p": "payload"
            },
            {
                "p": "topic",
                "vt": "str"
            }
        ],
        "repeat": "",
        "crontab": "",
        "once": false,
        "onceDelay": 0.1,
        "topic": "",
        "payload": "65535",
        "payloadType": "num",
        "x": 130,
        "y": 500,
        "wires": [
            [
                "0281783f1827d2e9"
            ]
        ]
    },
    {
        "id": "5be310ace218031f",
        "type": "inject",
        "z": "d77e47f028281f41",
        "name": "",
        "props": [
            {
                "p": "payload"
            },
            {
                "p": "topic",
                "vt": "str"
            }
        ],
        "repeat": "",
        "crontab": "",
        "once": false,
        "onceDelay": 0.1,
        "topic": "",
        "payload": "0",
        "payloadType": "num",
        "x": 130,
        "y": 540,
        "wires": [
            [
                "0281783f1827d2e9"
            ]
        ]
    },
    {
        "id": "7cacee066a31cfc3",
        "type": "analogoutput",
        "z": "d77e47f028281f41",
        "name": "DAC 0 Scale Voltage",
        "port": "A",
        "scale": "voltage",
        "vref": "vref-33",
        "x": 360,
        "y": 100,
        "wires": []
    },
    {
        "id": "95a6fc057cf11891",
        "type": "analogoutput",
        "z": "d77e47f028281f41",
        "name": "DAC 1 Scale Millivolts",
        "port": "B",
        "scale": "millivolt",
        "vref": "vref-33",
        "x": 360,
        "y": 220,
        "wires": []
    },
    {
        "id": "884f6d1eedb422b5",
        "type": "analogoutput",
        "z": "d77e47f028281f41",
        "name": "DAC0 Scale Fraction",
        "port": "A",
        "scale": "fraction",
        "vref": "vref-33",
        "x": 360,
        "y": 320,
        "wires": []
    },
    {
        "id": "c08e2a0ae57bc007",
        "type": "analogoutput",
        "z": "d77e47f028281f41",
        "name": "DAC1 Scale Percentage",
        "port": "B",
        "scale": "percentage",
        "vref": "vref-33",
        "x": 370,
        "y": 420,
        "wires": []
    },
    {
        "id": "0281783f1827d2e9",
        "type": "analogoutput",
        "z": "d77e47f028281f41",
        "name": "DAC0 Scale Counts",
        "port": "A",
        "scale": "counts",
        "vref": "vref-33",
        "x": 360,
        "y": 520,
        "wires": []
    }
]