[
    {
        "id": "32a71f63.572bb",
        "type": "tab",
        "label": "Demo GPIO",
        "disabled": false,
        "info": ""
    },
    {
        "id": "5e4d39c7.b7f3d8",
        "type": "inject",
        "z": "32a71f63.572bb",
        "name": "Write 0",
        "props": [
            {
                "p": "payload"
            },
            {
                "p": "topic",
                "vt": "str"
            }
        ],
        "repeat": "",
        "crontab": "",
        "once": false,
        "onceDelay": 0.1,
        "topic": "",
        "payload": "0",
        "payloadType": "num",
        "x": 110,
        "y": 40,
        "wires": [
            [
                "a06190595842abb7"
            ]
        ]
    },
    {
        "id": "d727c325.7333c",
        "type": "inject",
        "z": "32a71f63.572bb",
        "name": "Write 1",
        "props": [
            {
                "p": "payload"
            },
            {
                "p": "topic",
                "vt": "str"
            }
        ],
        "repeat": "",
        "crontab": "",
        "once": false,
        "onceDelay": 0.1,
        "topic": "",
        "payload": "1",
        "payloadType": "num",
        "x": 110,
        "y": 80,
        "wires": [
            [
                "a06190595842abb7"
            ]
        ]
    },
    {
        "id": "75d793fa.04839c",
        "type": "inject",
        "z": "32a71f63.572bb",
        "name": "Write 0",
        "props": [
            {
                "p": "payload"
            },
            {
                "p": "topic",
                "vt": "str"
            }
        ],
        "repeat": "",
        "crontab": "",
        "once": false,
        "onceDelay": 0.1,
        "topic": "",
        "payload": "0",
        "payloadType": "num",
        "x": 110,
        "y": 140,
        "wires": [
            [
                "911ede2873611926"
            ]
        ]
    },
    {
        "id": "47e81dca.e850c4",
        "type": "inject",
        "z": "32a71f63.572bb",
        "name": "Write 1",
        "props": [
            {
                "p": "payload"
            },
            {
                "p": "topic",
                "vt": "str"
            }
        ],
        "repeat": "",
        "crontab": "",
        "once": false,
        "onceDelay": 0.1,
        "topic": "",
        "payload": "1",
        "payloadType": "num",
        "x": 110,
        "y": 180,
        "wires": [
            [
                "911ede2873611926"
            ]
        ]
    },
    {
        "id": "2b3cea32.dbbd26",
        "type": "debug",
        "z": "32a71f63.572bb",
        "name": "GPIO D0 In",
        "active": true,
        "tosidebar": false,
        "console": false,
        "tostatus": true,
        "complete": "payload",
        "targetType": "msg",
        "statusVal": "payload",
        "statusType": "auto",
        "x": 790,
        "y": 740,
        "wires": []
    },
    {
        "id": "d7e8d4a4.c5e6f8",
        "type": "debug",
        "z": "32a71f63.572bb",
        "name": "GPIO D1 In",
        "active": true,
        "tosidebar": false,
        "console": false,
        "tostatus": true,
        "complete": "payload",
        "targetType": "msg",
        "statusVal": "payload",
        "statusType": "auto",
        "x": 790,
        "y": 640,
        "wires": []
    },
    {
        "id": "b3c80cf8.fd99e",
        "type": "inject",
        "z": "32a71f63.572bb",
        "name": "",
        "props": [
            {
                "p": "payload"
            },
            {
                "p": "topic",
                "vt": "str"
            }
        ],
        "repeat": "",
        "crontab": "",
        "once": false,
        "onceDelay": 0.1,
        "topic": "",
        "payload": "Read",
        "payloadType": "str",
        "x": 490,
        "y": 740,
        "wires": [
            [
                "082c0be43d5ccdd2"
            ]
        ]
    },
    {
        "id": "d120b706.53aa78",
        "type": "inject",
        "z": "32a71f63.572bb",
        "name": "",
        "props": [
            {
                "p": "payload"
            },
            {
                "p": "topic",
                "vt": "str"
            }
        ],
        "repeat": "",
        "crontab": "",
        "once": false,
        "onceDelay": 0.1,
        "topic": "",
        "payload": "Read",
        "payloadType": "str",
        "x": 490,
        "y": 640,
        "wires": [
            [
                "e5d3ad31b149510e"
            ]
        ]
    },
    {
        "id": "fb9068df.5b4158",
        "type": "inject",
        "z": "32a71f63.572bb",
        "name": "Write 0",
        "props": [
            {
                "p": "payload"
            },
            {
                "p": "topic",
                "vt": "str"
            }
        ],
        "repeat": "",
        "crontab": "",
        "once": false,
        "onceDelay": 0.1,
        "topic": "",
        "payload": "0",
        "payloadType": "num",
        "x": 110,
        "y": 240,
        "wires": [
            [
                "9559e096c6d64c61"
            ]
        ]
    },
    {
        "id": "87428f1b.a7ef6",
        "type": "inject",
        "z": "32a71f63.572bb",
        "name": "Write 1",
        "props": [
            {
                "p": "payload"
            },
            {
                "p": "topic",
                "vt": "str"
            }
        ],
        "repeat": "",
        "crontab": "",
        "once": false,
        "onceDelay": 0.1,
        "topic": "",
        "payload": "1",
        "payloadType": "num",
        "x": 110,
        "y": 280,
        "wires": [
            [
                "9559e096c6d64c61"
            ]
        ]
    },
    {
        "id": "6a08f438.b46bdc",
        "type": "inject",
        "z": "32a71f63.572bb",
        "name": "Write 0",
        "props": [
            {
                "p": "payload"
            },
            {
                "p": "topic",
                "vt": "str"
            }
        ],
        "repeat": "",
        "crontab": "",
        "once": false,
        "onceDelay": 0.1,
        "topic": "",
        "payload": "0",
        "payloadType": "num",
        "x": 110,
        "y": 340,
        "wires": [
            [
                "54f759971125de10"
            ]
        ]
    },
    {
        "id": "bff516a5.be4158",
        "type": "inject",
        "z": "32a71f63.572bb",
        "name": "Write 1",
        "props": [
            {
                "p": "payload"
            },
            {
                "p": "topic",
                "vt": "str"
            }
        ],
        "repeat": "",
        "crontab": "",
        "once": false,
        "onceDelay": 0.1,
        "topic": "",
        "payload": "1",
        "payloadType": "num",
        "x": 110,
        "y": 380,
        "wires": [
            [
                "54f759971125de10"
            ]
        ]
    },
    {
        "id": "ba8618df.3c9b08",
        "type": "inject",
        "z": "32a71f63.572bb",
        "name": "Write 1",
        "props": [
            {
                "p": "payload"
            },
            {
                "p": "topic",
                "vt": "str"
            }
        ],
        "repeat": "",
        "crontab": "",
        "once": false,
        "onceDelay": 0.1,
        "topic": "",
        "payload": "1",
        "payloadType": "num",
        "x": 110,
        "y": 580,
        "wires": [
            [
                "cb0d291b6255c515"
            ]
        ]
    },
    {
        "id": "bea53f77.edc1f",
        "type": "inject",
        "z": "32a71f63.572bb",
        "name": "Write 0",
        "props": [
            {
                "p": "payload"
            },
            {
                "p": "topic",
                "vt": "str"
            }
        ],
        "repeat": "",
        "crontab": "",
        "once": false,
        "onceDelay": 0.1,
        "topic": "",
        "payload": "0",
        "payloadType": "num",
        "x": 110,
        "y": 540,
        "wires": [
            [
                "cb0d291b6255c515"
            ]
        ]
    },
    {
        "id": "502784a8.b91aec",
        "type": "inject",
        "z": "32a71f63.572bb",
        "name": "Write 0",
        "props": [
            {
                "p": "payload"
            },
            {
                "p": "topic",
                "vt": "str"
            }
        ],
        "repeat": "",
        "crontab": "",
        "once": false,
        "onceDelay": 0.1,
        "topic": "",
        "payload": "0",
        "payloadType": "num",
        "x": 110,
        "y": 440,
        "wires": [
            [
                "60ba5cc1167bb2c1"
            ]
        ]
    },
    {
        "id": "4401c7fd.052318",
        "type": "inject",
        "z": "32a71f63.572bb",
        "name": "Write 1",
        "props": [
            {
                "p": "payload"
            },
            {
                "p": "topic",
                "vt": "str"
            }
        ],
        "repeat": "",
        "crontab": "",
        "once": false,
        "onceDelay": 0.1,
        "topic": "",
        "payload": "1",
        "payloadType": "num",
        "x": 110,
        "y": 480,
        "wires": [
            [
                "60ba5cc1167bb2c1"
            ]
        ]
    },
    {
        "id": "f992a7b1.4d4ce8",
        "type": "inject",
        "z": "32a71f63.572bb",
        "name": "Write 0",
        "props": [
            {
                "p": "payload"
            },
            {
                "p": "topic",
                "vt": "str"
            }
        ],
        "repeat": "",
        "crontab": "",
        "once": false,
        "onceDelay": 0.1,
        "topic": "",
        "payload": "0",
        "payloadType": "num",
        "x": 110,
        "y": 640,
        "wires": [
            [
                "7deee915bc630e52"
            ]
        ]
    },
    {
        "id": "302d2056.ba67b",
        "type": "inject",
        "z": "32a71f63.572bb",
        "name": "Write 1",
        "props": [
            {
                "p": "payload"
            },
            {
                "p": "topic",
                "vt": "str"
            }
        ],
        "repeat": "",
        "crontab": "",
        "once": false,
        "onceDelay": 0.1,
        "topic": "",
        "payload": "1",
        "payloadType": "num",
        "x": 110,
        "y": 680,
        "wires": [
            [
                "7deee915bc630e52"
            ]
        ]
    },
    {
        "id": "6f9f6f4c.d1798",
        "type": "inject",
        "z": "32a71f63.572bb",
        "name": "Write 0",
        "props": [
            {
                "p": "payload"
            },
            {
                "p": "topic",
                "vt": "str"
            }
        ],
        "repeat": "",
        "crontab": "",
        "once": false,
        "onceDelay": 0.1,
        "topic": "",
        "payload": "0",
        "payloadType": "num",
        "x": 110,
        "y": 740,
        "wires": [
            [
                "b663080e92ca224b"
            ]
        ]
    },
    {
        "id": "a0c5bdff.4ef48",
        "type": "inject",
        "z": "32a71f63.572bb",
        "name": "Write 1",
        "props": [
            {
                "p": "payload"
            },
            {
                "p": "topic",
                "vt": "str"
            }
        ],
        "repeat": "",
        "crontab": "",
        "once": false,
        "onceDelay": 0.1,
        "topic": "",
        "payload": "1",
        "payloadType": "num",
        "x": 110,
        "y": 780,
        "wires": [
            [
                "b663080e92ca224b"
            ]
        ]
    },
    {
        "id": "4b9f659d.374b8c",
        "type": "inject",
        "z": "32a71f63.572bb",
        "name": "",
        "props": [
            {
                "p": "payload"
            },
            {
                "p": "topic",
                "vt": "str"
            }
        ],
        "repeat": "",
        "crontab": "",
        "once": false,
        "onceDelay": 0.1,
        "topic": "",
        "payload": "Read",
        "payloadType": "str",
        "x": 490,
        "y": 540,
        "wires": [
            [
                "6eb7520cd2fc899d"
            ]
        ]
    },
    {
        "id": "bac73996.e52ab8",
        "type": "inject",
        "z": "32a71f63.572bb",
        "name": "",
        "props": [
            {
                "p": "payload"
            },
            {
                "p": "topic",
                "vt": "str"
            }
        ],
        "repeat": "",
        "crontab": "",
        "once": false,
        "onceDelay": 0.1,
        "topic": "",
        "payload": "Read",
        "payloadType": "str",
        "x": 490,
        "y": 440,
        "wires": [
            [
                "66dc67e67c505783"
            ]
        ]
    },
    {
        "id": "97fcec71.26ea1",
        "type": "debug",
        "z": "32a71f63.572bb",
        "name": "GPIO D3 In",
        "active": true,
        "tosidebar": false,
        "console": false,
        "tostatus": true,
        "complete": "payload",
        "targetType": "msg",
        "statusVal": "payload",
        "statusType": "auto",
        "x": 790,
        "y": 440,
        "wires": []
    },
    {
        "id": "d794e1c7.b60b1",
        "type": "debug",
        "z": "32a71f63.572bb",
        "name": "GPIO D2 In",
        "active": true,
        "tosidebar": false,
        "console": false,
        "tostatus": true,
        "complete": "payload",
        "targetType": "msg",
        "statusVal": "payload",
        "statusType": "auto",
        "x": 790,
        "y": 540,
        "wires": []
    },
    {
        "id": "47982451.fd116c",
        "type": "inject",
        "z": "32a71f63.572bb",
        "name": "",
        "props": [
            {
                "p": "payload"
            },
            {
                "p": "topic",
                "vt": "str"
            }
        ],
        "repeat": "",
        "crontab": "",
        "once": false,
        "onceDelay": 0.1,
        "topic": "",
        "payload": "Read",
        "payloadType": "str",
        "x": 490,
        "y": 340,
        "wires": [
            [
                "2025a4de2d4585a0"
            ]
        ]
    },
    {
        "id": "53c76c7f.19e084",
        "type": "inject",
        "z": "32a71f63.572bb",
        "name": "",
        "props": [
            {
                "p": "payload"
            },
            {
                "p": "topic",
                "vt": "str"
            }
        ],
        "repeat": "",
        "crontab": "",
        "once": false,
        "onceDelay": 0.1,
        "topic": "",
        "payload": "Read",
        "payloadType": "str",
        "x": 490,
        "y": 240,
        "wires": [
            [
                "069252232839d4bf"
            ]
        ]
    },
    {
        "id": "9b72d86e.a43b68",
        "type": "inject",
        "z": "32a71f63.572bb",
        "name": "",
        "props": [
            {
                "p": "payload"
            },
            {
                "p": "topic",
                "vt": "str"
            }
        ],
        "repeat": "",
        "crontab": "",
        "once": false,
        "onceDelay": 0.1,
        "topic": "",
        "payload": "Read",
        "payloadType": "str",
        "x": 490,
        "y": 40,
        "wires": [
            [
                "69c695c5d9166c31"
            ]
        ]
    },
    {
        "id": "3c18505f.6e2c1",
        "type": "inject",
        "z": "32a71f63.572bb",
        "name": "",
        "props": [
            {
                "p": "payload"
            },
            {
                "p": "topic",
                "vt": "str"
            }
        ],
        "repeat": "",
        "crontab": "",
        "once": false,
        "onceDelay": 0.1,
        "topic": "",
        "payload": "Read",
        "payloadType": "str",
        "x": 490,
        "y": 140,
        "wires": [
            [
                "6871ceb6d22b1cad"
            ]
        ]
    },
    {
        "id": "a3312c93.ac84d",
        "type": "debug",
        "z": "32a71f63.572bb",
        "name": "GPIO P25 In",
        "active": true,
        "tosidebar": false,
        "console": false,
        "tostatus": true,
        "complete": "payload",
        "targetType": "msg",
        "statusVal": "payload",
        "statusType": "auto",
        "x": 790,
        "y": 40,
        "wires": []
    },
    {
        "id": "7dfbf36c.bbbb7c",
        "type": "debug",
        "z": "32a71f63.572bb",
        "name": "GPIO P24 In",
        "active": true,
        "tosidebar": false,
        "console": false,
        "tostatus": true,
        "complete": "payload",
        "targetType": "msg",
        "statusVal": "payload",
        "statusType": "auto",
        "x": 790,
        "y": 140,
        "wires": []
    },
    {
        "id": "c6fa0ee.9a3ebf",
        "type": "debug",
        "z": "32a71f63.572bb",
        "name": "GPIO P23 In",
        "active": true,
        "tosidebar": false,
        "console": false,
        "tostatus": true,
        "complete": "payload",
        "targetType": "msg",
        "statusVal": "payload",
        "statusType": "auto",
        "x": 790,
        "y": 240,
        "wires": []
    },
    {
        "id": "3952cff4.af886",
        "type": "debug",
        "z": "32a71f63.572bb",
        "name": "GPIO P22 In",
        "active": true,
        "tosidebar": false,
        "console": false,
        "tostatus": true,
        "complete": "payload",
        "targetType": "msg",
        "statusVal": "payload",
        "statusType": "auto",
        "x": 790,
        "y": 340,
        "wires": []
    },
    {
        "id": "69c695c5d9166c31",
        "type": "gpioinput",
        "z": "32a71f63.572bb",
        "name": "GPIO P25 In",
        "port": "P25",
        "x": 630,
        "y": 40,
        "wires": [
            [
                "a3312c93.ac84d"
            ]
        ]
    },
    {
        "id": "6871ceb6d22b1cad",
        "type": "gpioinput",
        "z": "32a71f63.572bb",
        "name": "GPIO P24 In",
        "port": "P24",
        "x": 630,
        "y": 140,
        "wires": [
            [
                "7dfbf36c.bbbb7c"
            ]
        ]
    },
    {
        "id": "069252232839d4bf",
        "type": "gpioinput",
        "z": "32a71f63.572bb",
        "name": "GPIO P23 In",
        "port": "P23",
        "x": 630,
        "y": 240,
        "wires": [
            [
                "c6fa0ee.9a3ebf"
            ]
        ]
    },
    {
        "id": "2025a4de2d4585a0",
        "type": "gpioinput",
        "z": "32a71f63.572bb",
        "name": "GPIO P22 In",
        "port": "P22",
        "x": 630,
        "y": 340,
        "wires": [
            [
                "3952cff4.af886"
            ]
        ]
    },
    {
        "id": "66dc67e67c505783",
        "type": "gpioinput",
        "z": "32a71f63.572bb",
        "name": "GPIO D3 In",
        "port": "D3",
        "x": 630,
        "y": 440,
        "wires": [
            [
                "97fcec71.26ea1"
            ]
        ]
    },
    {
        "id": "6eb7520cd2fc899d",
        "type": "gpioinput",
        "z": "32a71f63.572bb",
        "name": "GPIO D2 In",
        "port": "D2",
        "x": 630,
        "y": 540,
        "wires": [
            [
                "d794e1c7.b60b1"
            ]
        ]
    },
    {
        "id": "e5d3ad31b149510e",
        "type": "gpioinput",
        "z": "32a71f63.572bb",
        "name": "GPIO D1 In",
        "port": "D1",
        "x": 630,
        "y": 640,
        "wires": [
            [
                "d7e8d4a4.c5e6f8"
            ]
        ]
    },
    {
        "id": "082c0be43d5ccdd2",
        "type": "gpioinput",
        "z": "32a71f63.572bb",
        "name": "GPIO D0 In",
        "port": "D0",
        "x": 630,
        "y": 740,
        "wires": [
            [
                "2b3cea32.dbbd26"
            ]
        ]
    },
    {
        "id": "a06190595842abb7",
        "type": "gpiooutput",
        "z": "32a71f63.572bb",
        "name": "GPIO P25 Out",
        "port": "P25",
        "x": 280,
        "y": 40,
        "wires": []
    },
    {
        "id": "911ede2873611926",
        "type": "gpiooutput",
        "z": "32a71f63.572bb",
        "name": "GPIO P24 Out",
        "port": "P24",
        "x": 280,
        "y": 140,
        "wires": []
    },
    {
        "id": "9559e096c6d64c61",
        "type": "gpiooutput",
        "z": "32a71f63.572bb",
        "name": "GPIO P23 Out",
        "port": "P23",
        "x": 280,
        "y": 240,
        "wires": []
    },
    {
        "id": "54f759971125de10",
        "type": "gpiooutput",
        "z": "32a71f63.572bb",
        "name": "GPIO P22 Out",
        "port": "P22",
        "x": 280,
        "y": 340,
        "wires": []
    },
    {
        "id": "60ba5cc1167bb2c1",
        "type": "gpiooutput",
        "z": "32a71f63.572bb",
        "name": "GPIO D3 Out",
        "port": "D3",
        "x": 270,
        "y": 440,
        "wires": []
    },
    {
        "id": "cb0d291b6255c515",
        "type": "gpiooutput",
        "z": "32a71f63.572bb",
        "name": "GPIO D2 Out",
        "port": "D2",
        "x": 270,
        "y": 540,
        "wires": []
    },
    {
        "id": "7deee915bc630e52",
        "type": "gpiooutput",
        "z": "32a71f63.572bb",
        "name": "GPIO D1 Out",
        "port": "D1",
        "x": 270,
        "y": 640,
        "wires": []
    },
    {
        "id": "b663080e92ca224b",
        "type": "gpiooutput",
        "z": "32a71f63.572bb",
        "name": "GPIO D0 Out",
        "port": "D0",
        "x": 270,
        "y": 740,
        "wires": []
    }
]